%YAML 1.1
%TAG !u! tag:unity3d.com,2011:
--- !u!29 &1
OcclusionCullingSettings:
  m_ObjectHideFlags: 0
  serializedVersion: 2
  m_OcclusionBakeSettings:
    smallestOccluder: 5
    smallestHole: 0.25
    backfaceThreshold: 100
  m_SceneGUID: 00000000000000000000000000000000
  m_OcclusionCullingData: {fileID: 0}
--- !u!104 &2
RenderSettings:
  m_ObjectHideFlags: 0
  serializedVersion: 9
  m_Fog: 0
  m_FogColor: {r: 0.5, g: 0.5, b: 0.5, a: 1}
  m_FogMode: 3
  m_FogDensity: 0.01
  m_LinearFogStart: 0
  m_LinearFogEnd: 300
  m_AmbientSkyColor: {r: 0.212, g: 0.227, b: 0.259, a: 1}
  m_AmbientEquatorColor: {r: 0.114, g: 0.125, b: 0.133, a: 1}
  m_AmbientGroundColor: {r: 0.047, g: 0.043, b: 0.035, a: 1}
  m_AmbientIntensity: 1
  m_AmbientMode: 3
  m_SubtractiveShadowColor: {r: 0.42, g: 0.478, b: 0.627, a: 1}
  m_SkyboxMaterial: {fileID: 0}
  m_HaloStrength: 0.5
  m_FlareStrength: 1
  m_FlareFadeSpeed: 3
  m_HaloTexture: {fileID: 0}
  m_SpotCookie: {fileID: 10001, guid: 0000000000000000e000000000000000, type: 0}
  m_DefaultReflectionMode: 0
  m_DefaultReflectionResolution: 128
  m_ReflectionBounces: 1
  m_ReflectionIntensity: 1
  m_CustomReflection: {fileID: 0}
  m_Sun: {fileID: 0}
  m_IndirectSpecularColor: {r: 0, g: 0, b: 0, a: 1}
  m_UseRadianceAmbientProbe: 0
--- !u!157 &3
LightmapSettings:
  m_ObjectHideFlags: 0
  serializedVersion: 11
  m_GIWorkflowMode: 1
  m_GISettings:
    serializedVersion: 2
    m_BounceScale: 1
    m_IndirectOutputScale: 1
    m_AlbedoBoost: 1
    m_EnvironmentLightingMode: 0
    m_EnableBakedLightmaps: 0
    m_EnableRealtimeLightmaps: 0
  m_LightmapEditorSettings:
    serializedVersion: 10
    m_Resolution: 2
    m_BakeResolution: 40
    m_AtlasSize: 1024
    m_AO: 0
    m_AOMaxDistance: 1
    m_CompAOExponent: 1
    m_CompAOExponentDirect: 0
    m_Padding: 2
    m_LightmapParameters: {fileID: 0}
    m_LightmapsBakeMode: 1
    m_TextureCompression: 1
    m_FinalGather: 0
    m_FinalGatherFiltering: 1
    m_FinalGatherRayCount: 256
    m_ReflectionCompression: 2
    m_MixedBakeMode: 2
    m_BakeBackend: 1
    m_PVRSampling: 1
    m_PVRDirectSampleCount: 32
    m_PVRSampleCount: 500
    m_PVRBounces: 2
    m_PVRFilterTypeDirect: 0
    m_PVRFilterTypeIndirect: 0
    m_PVRFilterTypeAO: 0
    m_PVRFilteringMode: 1
    m_PVRCulling: 1
    m_PVRFilteringGaussRadiusDirect: 1
    m_PVRFilteringGaussRadiusIndirect: 5
    m_PVRFilteringGaussRadiusAO: 2
    m_PVRFilteringAtrousPositionSigmaDirect: 0.5
    m_PVRFilteringAtrousPositionSigmaIndirect: 2
    m_PVRFilteringAtrousPositionSigmaAO: 1
    m_ShowResolutionOverlay: 1
  m_LightingDataAsset: {fileID: 0}
  m_UseShadowmask: 1
--- !u!196 &4
NavMeshSettings:
  serializedVersion: 2
  m_ObjectHideFlags: 0
  m_BuildSettings:
    serializedVersion: 2
    agentTypeID: 0
    agentRadius: 0.5
    agentHeight: 2
    agentSlope: 45
    agentClimb: 0.4
    ledgeDropHeight: 0
    maxJumpAcrossDistance: 0
    minRegionArea: 2
    manualCellSize: 0
    cellSize: 0.16666667
    manualTileSize: 0
    tileSize: 256
    accuratePlacement: 0
    debug:
      m_Flags: 0
  m_NavMeshData: {fileID: 0}
--- !u!1001 &256751647
PrefabInstance:
  m_ObjectHideFlags: 0
  serializedVersion: 2
  m_Modification:
    m_TransformParent: {fileID: 0}
    m_Modifications:
    - target: {fileID: 1480771265240706293, guid: 9de64e6ede5ac224292938f5d5685a82,
        type: 3}
      propertyPath: m_Name
      value: Player
      objectReference: {fileID: 0}
    - target: {fileID: 1480771265240706292, guid: 9de64e6ede5ac224292938f5d5685a82,
        type: 3}
      propertyPath: m_LocalPosition.x
      value: 0
      objectReference: {fileID: 0}
    - target: {fileID: 1480771265240706292, guid: 9de64e6ede5ac224292938f5d5685a82,
        type: 3}
      propertyPath: m_LocalPosition.y
      value: 0
      objectReference: {fileID: 0}
    - target: {fileID: 1480771265240706292, guid: 9de64e6ede5ac224292938f5d5685a82,
        type: 3}
      propertyPath: m_LocalPosition.z
      value: 0
      objectReference: {fileID: 0}
    - target: {fileID: 1480771265240706292, guid: 9de64e6ede5ac224292938f5d5685a82,
        type: 3}
      propertyPath: m_LocalRotation.x
      value: 0
      objectReference: {fileID: 0}
    - target: {fileID: 1480771265240706292, guid: 9de64e6ede5ac224292938f5d5685a82,
        type: 3}
      propertyPath: m_LocalRotation.y
      value: 0
      objectReference: {fileID: 0}
    - target: {fileID: 1480771265240706292, guid: 9de64e6ede5ac224292938f5d5685a82,
        type: 3}
      propertyPath: m_LocalRotation.z
      value: 0
      objectReference: {fileID: 0}
    - target: {fileID: 1480771265240706292, guid: 9de64e6ede5ac224292938f5d5685a82,
        type: 3}
      propertyPath: m_LocalRotation.w
      value: 1
      objectReference: {fileID: 0}
    - target: {fileID: 1480771265240706292, guid: 9de64e6ede5ac224292938f5d5685a82,
        type: 3}
      propertyPath: m_RootOrder
      value: 7
      objectReference: {fileID: 0}
    - target: {fileID: 1480771265240706292, guid: 9de64e6ede5ac224292938f5d5685a82,
        type: 3}
      propertyPath: m_LocalEulerAnglesHint.x
      value: 0
      objectReference: {fileID: 0}
    - target: {fileID: 1480771265240706292, guid: 9de64e6ede5ac224292938f5d5685a82,
        type: 3}
      propertyPath: m_LocalEulerAnglesHint.y
      value: 0
      objectReference: {fileID: 0}
    - target: {fileID: 1480771265240706292, guid: 9de64e6ede5ac224292938f5d5685a82,
        type: 3}
      propertyPath: m_LocalEulerAnglesHint.z
      value: 0
      objectReference: {fileID: 0}
    - target: {fileID: 1480771265745293363, guid: 9de64e6ede5ac224292938f5d5685a82,
        type: 3}
      propertyPath: m_Mesh
      value: 
      objectReference: {fileID: 0}
    - target: {fileID: 1480771265745293366, guid: 9de64e6ede5ac224292938f5d5685a82,
        type: 3}
      propertyPath: m_havePropertiesChanged
      value: 1
      objectReference: {fileID: 0}
    - target: {fileID: 1480771265745293366, guid: 9de64e6ede5ac224292938f5d5685a82,
        type: 3}
      propertyPath: m_isInputParsingRequired
      value: 1
      objectReference: {fileID: 0}
    m_RemovedComponents: []
  m_SourcePrefab: {fileID: 100100000, guid: 9de64e6ede5ac224292938f5d5685a82, type: 3}
--- !u!1001 &714053860
PrefabInstance:
  m_ObjectHideFlags: 0
  serializedVersion: 2
  m_Modification:
    m_TransformParent: {fileID: 0}
    m_Modifications:
    - target: {fileID: 2589390324759688707, guid: 9efbefa5ac91aca4486daf0086899bb6,
        type: 3}
      propertyPath: m_Name
      value: Camera Container
      objectReference: {fileID: 0}
    - target: {fileID: 2589390324759688706, guid: 9efbefa5ac91aca4486daf0086899bb6,
        type: 3}
      propertyPath: m_LocalPosition.x
      value: 0
      objectReference: {fileID: 0}
    - target: {fileID: 2589390324759688706, guid: 9efbefa5ac91aca4486daf0086899bb6,
        type: 3}
      propertyPath: m_LocalPosition.y
      value: 0
      objectReference: {fileID: 0}
    - target: {fileID: 2589390324759688706, guid: 9efbefa5ac91aca4486daf0086899bb6,
        type: 3}
      propertyPath: m_LocalPosition.z
      value: 0
      objectReference: {fileID: 0}
    - target: {fileID: 2589390324759688706, guid: 9efbefa5ac91aca4486daf0086899bb6,
        type: 3}
      propertyPath: m_LocalRotation.x
      value: 0
      objectReference: {fileID: 0}
    - target: {fileID: 2589390324759688706, guid: 9efbefa5ac91aca4486daf0086899bb6,
        type: 3}
      propertyPath: m_LocalRotation.y
      value: 0
      objectReference: {fileID: 0}
    - target: {fileID: 2589390324759688706, guid: 9efbefa5ac91aca4486daf0086899bb6,
        type: 3}
      propertyPath: m_LocalRotation.z
      value: 0
      objectReference: {fileID: 0}
    - target: {fileID: 2589390324759688706, guid: 9efbefa5ac91aca4486daf0086899bb6,
        type: 3}
      propertyPath: m_LocalRotation.w
      value: 1
      objectReference: {fileID: 0}
    - target: {fileID: 2589390324759688706, guid: 9efbefa5ac91aca4486daf0086899bb6,
        type: 3}
      propertyPath: m_RootOrder
      value: 2
      objectReference: {fileID: 0}
    - target: {fileID: 2589390324759688706, guid: 9efbefa5ac91aca4486daf0086899bb6,
        type: 3}
      propertyPath: m_LocalEulerAnglesHint.x
      value: 0
      objectReference: {fileID: 0}
    - target: {fileID: 2589390324759688706, guid: 9efbefa5ac91aca4486daf0086899bb6,
        type: 3}
      propertyPath: m_LocalEulerAnglesHint.y
      value: 0
      objectReference: {fileID: 0}
    - target: {fileID: 2589390324759688706, guid: 9efbefa5ac91aca4486daf0086899bb6,
        type: 3}
      propertyPath: m_LocalEulerAnglesHint.z
      value: 0
      objectReference: {fileID: 0}
    m_RemovedComponents: []
  m_SourcePrefab: {fileID: 100100000, guid: 9efbefa5ac91aca4486daf0086899bb6, type: 3}
--- !u!1001 &714282001
PrefabInstance:
  m_ObjectHideFlags: 0
  serializedVersion: 2
  m_Modification:
    m_TransformParent: {fileID: 0}
    m_Modifications:
    - target: {fileID: 3880376354412690769, guid: 990089e37df5c264fad47bb30fbd6db2,
        type: 3}
      propertyPath: m_Name
      value: Ceiling
      objectReference: {fileID: 0}
    - target: {fileID: 3880376354412690863, guid: 990089e37df5c264fad47bb30fbd6db2,
        type: 3}
      propertyPath: m_LocalPosition.x
      value: -0.08
      objectReference: {fileID: 0}
    - target: {fileID: 3880376354412690863, guid: 990089e37df5c264fad47bb30fbd6db2,
        type: 3}
      propertyPath: m_LocalPosition.y
      value: 8.382
      objectReference: {fileID: 0}
    - target: {fileID: 3880376354412690863, guid: 990089e37df5c264fad47bb30fbd6db2,
        type: 3}
      propertyPath: m_LocalPosition.z
      value: 0
      objectReference: {fileID: 0}
    - target: {fileID: 3880376354412690863, guid: 990089e37df5c264fad47bb30fbd6db2,
        type: 3}
      propertyPath: m_LocalRotation.x
      value: 0
      objectReference: {fileID: 0}
    - target: {fileID: 3880376354412690863, guid: 990089e37df5c264fad47bb30fbd6db2,
        type: 3}
      propertyPath: m_LocalRotation.y
      value: 0
      objectReference: {fileID: 0}
    - target: {fileID: 3880376354412690863, guid: 990089e37df5c264fad47bb30fbd6db2,
        type: 3}
      propertyPath: m_LocalRotation.z
      value: 0
      objectReference: {fileID: 0}
    - target: {fileID: 3880376354412690863, guid: 990089e37df5c264fad47bb30fbd6db2,
        type: 3}
      propertyPath: m_LocalRotation.w
      value: 1
      objectReference: {fileID: 0}
    - target: {fileID: 3880376354412690863, guid: 990089e37df5c264fad47bb30fbd6db2,
        type: 3}
      propertyPath: m_RootOrder
      value: 4
      objectReference: {fileID: 0}
    - target: {fileID: 3880376354412690863, guid: 990089e37df5c264fad47bb30fbd6db2,
        type: 3}
      propertyPath: m_LocalEulerAnglesHint.x
      value: 0
      objectReference: {fileID: 0}
    - target: {fileID: 3880376354412690863, guid: 990089e37df5c264fad47bb30fbd6db2,
        type: 3}
      propertyPath: m_LocalEulerAnglesHint.y
      value: 0
      objectReference: {fileID: 0}
    - target: {fileID: 3880376354412690863, guid: 990089e37df5c264fad47bb30fbd6db2,
        type: 3}
      propertyPath: m_LocalEulerAnglesHint.z
      value: 0
      objectReference: {fileID: 0}
    m_RemovedComponents: []
  m_SourcePrefab: {fileID: 100100000, guid: 990089e37df5c264fad47bb30fbd6db2, type: 3}
--- !u!1001 &861527210
PrefabInstance:
  m_ObjectHideFlags: 0
  serializedVersion: 2
  m_Modification:
    m_TransformParent: {fileID: 0}
    m_Modifications:
    - target: {fileID: 7692031823332856611, guid: 3be089ee531f40c48b40cc49dd0314d8,
        type: 3}
      propertyPath: m_Name
      value: Sheep
      objectReference: {fileID: 0}
    - target: {fileID: 7692031823332856610, guid: 3be089ee531f40c48b40cc49dd0314d8,
        type: 3}
      propertyPath: m_LocalPosition.x
      value: 0.026187181
      objectReference: {fileID: 0}
    - target: {fileID: 7692031823332856610, guid: 3be089ee531f40c48b40cc49dd0314d8,
        type: 3}
      propertyPath: m_LocalPosition.y
      value: -0.009230852
      objectReference: {fileID: 0}
    - target: {fileID: 7692031823332856610, guid: 3be089ee531f40c48b40cc49dd0314d8,
        type: 3}
      propertyPath: m_LocalPosition.z
      value: 0
      objectReference: {fileID: 0}
    - target: {fileID: 7692031823332856610, guid: 3be089ee531f40c48b40cc49dd0314d8,
        type: 3}
      propertyPath: m_LocalRotation.x
      value: 0
      objectReference: {fileID: 0}
    - target: {fileID: 7692031823332856610, guid: 3be089ee531f40c48b40cc49dd0314d8,
        type: 3}
      propertyPath: m_LocalRotation.y
      value: 0
      objectReference: {fileID: 0}
    - target: {fileID: 7692031823332856610, guid: 3be089ee531f40c48b40cc49dd0314d8,
        type: 3}
      propertyPath: m_LocalRotation.z
      value: 0
      objectReference: {fileID: 0}
    - target: {fileID: 7692031823332856610, guid: 3be089ee531f40c48b40cc49dd0314d8,
        type: 3}
      propertyPath: m_LocalRotation.w
      value: 1
      objectReference: {fileID: 0}
    - target: {fileID: 7692031823332856610, guid: 3be089ee531f40c48b40cc49dd0314d8,
        type: 3}
      propertyPath: m_RootOrder
      value: 8
      objectReference: {fileID: 0}
    - target: {fileID: 7692031823332856610, guid: 3be089ee531f40c48b40cc49dd0314d8,
        type: 3}
      propertyPath: m_LocalEulerAnglesHint.x
      value: 0
      objectReference: {fileID: 0}
    - target: {fileID: 7692031823332856610, guid: 3be089ee531f40c48b40cc49dd0314d8,
        type: 3}
      propertyPath: m_LocalEulerAnglesHint.y
      value: 0
      objectReference: {fileID: 0}
    - target: {fileID: 7692031823332856610, guid: 3be089ee531f40c48b40cc49dd0314d8,
        type: 3}
      propertyPath: m_LocalEulerAnglesHint.z
      value: 0
      objectReference: {fileID: 0}
    m_RemovedComponents: []
  m_SourcePrefab: {fileID: 100100000, guid: 3be089ee531f40c48b40cc49dd0314d8, type: 3}
--- !u!1001 &909573135
PrefabInstance:
  m_ObjectHideFlags: 0
  serializedVersion: 2
  m_Modification:
    m_TransformParent: {fileID: 0}
    m_Modifications:
    - target: {fileID: 8157532172205108390, guid: 7a829ffb4bab9754fac110ef423fddfe,
        type: 3}
      propertyPath: m_Name
      value: Canvas
      objectReference: {fileID: 0}
    - target: {fileID: 8157532172205108394, guid: 7a829ffb4bab9754fac110ef423fddfe,
        type: 3}
      propertyPath: m_LocalPosition.x
      value: 0
      objectReference: {fileID: 0}
    - target: {fileID: 8157532172205108394, guid: 7a829ffb4bab9754fac110ef423fddfe,
        type: 3}
      propertyPath: m_LocalPosition.y
      value: 0
      objectReference: {fileID: 0}
    - target: {fileID: 8157532172205108394, guid: 7a829ffb4bab9754fac110ef423fddfe,
        type: 3}
      propertyPath: m_LocalPosition.z
      value: 0
      objectReference: {fileID: 0}
    - target: {fileID: 8157532172205108394, guid: 7a829ffb4bab9754fac110ef423fddfe,
        type: 3}
      propertyPath: m_LocalRotation.x
      value: 0
      objectReference: {fileID: 0}
    - target: {fileID: 8157532172205108394, guid: 7a829ffb4bab9754fac110ef423fddfe,
        type: 3}
      propertyPath: m_LocalRotation.y
      value: 0
      objectReference: {fileID: 0}
    - target: {fileID: 8157532172205108394, guid: 7a829ffb4bab9754fac110ef423fddfe,
        type: 3}
      propertyPath: m_LocalRotation.z
      value: 0
      objectReference: {fileID: 0}
    - target: {fileID: 8157532172205108394, guid: 7a829ffb4bab9754fac110ef423fddfe,
        type: 3}
      propertyPath: m_LocalRotation.w
      value: 1
      objectReference: {fileID: 0}
    - target: {fileID: 8157532172205108394, guid: 7a829ffb4bab9754fac110ef423fddfe,
        type: 3}
      propertyPath: m_RootOrder
      value: 3
      objectReference: {fileID: 0}
    - target: {fileID: 8157532172205108394, guid: 7a829ffb4bab9754fac110ef423fddfe,
        type: 3}
      propertyPath: m_LocalEulerAnglesHint.x
      value: 0
      objectReference: {fileID: 0}
    - target: {fileID: 8157532172205108394, guid: 7a829ffb4bab9754fac110ef423fddfe,
        type: 3}
      propertyPath: m_LocalEulerAnglesHint.y
      value: 0
      objectReference: {fileID: 0}
    - target: {fileID: 8157532172205108394, guid: 7a829ffb4bab9754fac110ef423fddfe,
        type: 3}
      propertyPath: m_LocalEulerAnglesHint.z
      value: 0
      objectReference: {fileID: 0}
    - target: {fileID: 8157532172205108394, guid: 7a829ffb4bab9754fac110ef423fddfe,
        type: 3}
      propertyPath: m_AnchoredPosition.x
      value: 0
      objectReference: {fileID: 0}
    - target: {fileID: 8157532172205108394, guid: 7a829ffb4bab9754fac110ef423fddfe,
        type: 3}
      propertyPath: m_AnchoredPosition.y
      value: 0
      objectReference: {fileID: 0}
    - target: {fileID: 8157532172205108394, guid: 7a829ffb4bab9754fac110ef423fddfe,
        type: 3}
      propertyPath: m_SizeDelta.x
      value: 0
      objectReference: {fileID: 0}
    - target: {fileID: 8157532172205108394, guid: 7a829ffb4bab9754fac110ef423fddfe,
        type: 3}
      propertyPath: m_SizeDelta.y
      value: 0
      objectReference: {fileID: 0}
    - target: {fileID: 8157532172205108394, guid: 7a829ffb4bab9754fac110ef423fddfe,
        type: 3}
      propertyPath: m_AnchorMin.x
      value: 0
      objectReference: {fileID: 0}
    - target: {fileID: 8157532172205108394, guid: 7a829ffb4bab9754fac110ef423fddfe,
        type: 3}
      propertyPath: m_AnchorMin.y
      value: 0
      objectReference: {fileID: 0}
    - target: {fileID: 8157532172205108394, guid: 7a829ffb4bab9754fac110ef423fddfe,
        type: 3}
      propertyPath: m_AnchorMax.x
      value: 0
      objectReference: {fileID: 0}
    - target: {fileID: 8157532172205108394, guid: 7a829ffb4bab9754fac110ef423fddfe,
        type: 3}
      propertyPath: m_AnchorMax.y
      value: 0
      objectReference: {fileID: 0}
    - target: {fileID: 8157532172205108394, guid: 7a829ffb4bab9754fac110ef423fddfe,
        type: 3}
      propertyPath: m_Pivot.x
      value: 0
      objectReference: {fileID: 0}
    - target: {fileID: 8157532172205108394, guid: 7a829ffb4bab9754fac110ef423fddfe,
        type: 3}
      propertyPath: m_Pivot.y
      value: 0
      objectReference: {fileID: 0}
    - target: {fileID: 8157532171177174468, guid: 7a829ffb4bab9754fac110ef423fddfe,
        type: 3}
      propertyPath: m_havePropertiesChanged
      value: 1
      objectReference: {fileID: 0}
    - target: {fileID: 8157532171177174468, guid: 7a829ffb4bab9754fac110ef423fddfe,
        type: 3}
      propertyPath: m_isInputParsingRequired
      value: 1
      objectReference: {fileID: 0}
    m_RemovedComponents: []
  m_SourcePrefab: {fileID: 100100000, guid: 7a829ffb4bab9754fac110ef423fddfe, type: 3}
--- !u!1001 &1005418201
PrefabInstance:
  m_ObjectHideFlags: 0
  serializedVersion: 2
  m_Modification:
    m_TransformParent: {fileID: 0}
    m_Modifications:
    - target: {fileID: 9134689281270285747, guid: 18392694170c3af4696cf3dba4edf893,
        type: 3}
      propertyPath: m_Name
      value: Torch
      objectReference: {fileID: 0}
    - target: {fileID: 9134689281270285748, guid: 18392694170c3af4696cf3dba4edf893,
        type: 3}
      propertyPath: m_LocalPosition.x
      value: 2.56
      objectReference: {fileID: 0}
    - target: {fileID: 9134689281270285748, guid: 18392694170c3af4696cf3dba4edf893,
        type: 3}
      propertyPath: m_LocalPosition.y
      value: -3.02
      objectReference: {fileID: 0}
    - target: {fileID: 9134689281270285748, guid: 18392694170c3af4696cf3dba4edf893,
        type: 3}
      propertyPath: m_LocalPosition.z
      value: 0
      objectReference: {fileID: 0}
    - target: {fileID: 9134689281270285748, guid: 18392694170c3af4696cf3dba4edf893,
        type: 3}
      propertyPath: m_LocalRotation.x
      value: 0
      objectReference: {fileID: 0}
    - target: {fileID: 9134689281270285748, guid: 18392694170c3af4696cf3dba4edf893,
        type: 3}
      propertyPath: m_LocalRotation.y
      value: 0
      objectReference: {fileID: 0}
    - target: {fileID: 9134689281270285748, guid: 18392694170c3af4696cf3dba4edf893,
        type: 3}
      propertyPath: m_LocalRotation.z
      value: 0
      objectReference: {fileID: 0}
    - target: {fileID: 9134689281270285748, guid: 18392694170c3af4696cf3dba4edf893,
        type: 3}
      propertyPath: m_LocalRotation.w
      value: 1
      objectReference: {fileID: 0}
    - target: {fileID: 9134689281270285748, guid: 18392694170c3af4696cf3dba4edf893,
        type: 3}
      propertyPath: m_RootOrder
      value: 9
      objectReference: {fileID: 0}
    - target: {fileID: 9134689281270285748, guid: 18392694170c3af4696cf3dba4edf893,
        type: 3}
      propertyPath: m_LocalEulerAnglesHint.x
      value: 0
      objectReference: {fileID: 0}
    - target: {fileID: 9134689281270285748, guid: 18392694170c3af4696cf3dba4edf893,
        type: 3}
      propertyPath: m_LocalEulerAnglesHint.y
      value: 0
      objectReference: {fileID: 0}
    - target: {fileID: 9134689281270285748, guid: 18392694170c3af4696cf3dba4edf893,
        type: 3}
      propertyPath: m_LocalEulerAnglesHint.z
      value: 0
      objectReference: {fileID: 0}
    m_RemovedComponents: []
  m_SourcePrefab: {fileID: 100100000, guid: 18392694170c3af4696cf3dba4edf893, type: 3}
--- !u!1 &1106524390
GameObject:
  m_ObjectHideFlags: 0
  m_CorrespondingSourceObject: {fileID: 0}
  m_PrefabInstance: {fileID: 0}
  m_PrefabAsset: {fileID: 0}
  serializedVersion: 6
  m_Component:
  - component: {fileID: 1106524393}
  - component: {fileID: 1106524392}
  - component: {fileID: 1106524391}
  m_Layer: 0
  m_Name: Main Camera
  m_TagString: MainCamera
  m_Icon: {fileID: 0}
  m_NavMeshLayer: 0
  m_StaticEditorFlags: 0
  m_IsActive: 1
--- !u!81 &1106524391
AudioListener:
  m_ObjectHideFlags: 0
  m_CorrespondingSourceObject: {fileID: 0}
  m_PrefabInstance: {fileID: 0}
  m_PrefabAsset: {fileID: 0}
  m_GameObject: {fileID: 1106524390}
  m_Enabled: 1
--- !u!20 &1106524392
Camera:
  m_ObjectHideFlags: 0
  m_CorrespondingSourceObject: {fileID: 0}
  m_PrefabInstance: {fileID: 0}
  m_PrefabAsset: {fileID: 0}
  m_GameObject: {fileID: 1106524390}
  m_Enabled: 1
  serializedVersion: 2
  m_ClearFlags: 1
  m_BackGroundColor: {r: 0.19215687, g: 0.3019608, b: 0.4745098, a: 0}
  m_projectionMatrixMode: 1
  m_SensorSize: {x: 36, y: 24}
  m_LensShift: {x: 0, y: 0}
  m_GateFitMode: 2
  m_FocalLength: 50
  m_NormalizedViewPortRect:
    serializedVersion: 2
    x: 0
    y: 0
    width: 1
    height: 1
  near clip plane: 0.3
  far clip plane: 1000
  field of view: 60
  orthographic: 1
  orthographic size: 5
  m_Depth: -1
  m_CullingMask:
    serializedVersion: 2
    m_Bits: 4294967295
  m_RenderingPath: -1
  m_TargetTexture: {fileID: 0}
  m_TargetDisplay: 0
  m_TargetEye: 3
  m_HDR: 1
  m_AllowMSAA: 1
  m_AllowDynamicResolution: 0
  m_ForceIntoRT: 0
  m_OcclusionCulling: 1
  m_StereoConvergence: 10
  m_StereoSeparation: 0.022
--- !u!4 &1106524393
Transform:
  m_ObjectHideFlags: 0
  m_CorrespondingSourceObject: {fileID: 0}
  m_PrefabInstance: {fileID: 0}
  m_PrefabAsset: {fileID: 0}
  m_GameObject: {fileID: 1106524390}
  m_LocalRotation: {x: 0, y: 0, z: 0, w: 1}
  m_LocalPosition: {x: 0, y: 0, z: -10}
  m_LocalScale: {x: 1, y: 1, z: 1}
  m_Children: []
  m_Father: {fileID: 0}
  m_RootOrder: 0
  m_LocalEulerAnglesHint: {x: 0, y: 0, z: 0}
--- !u!1001 &1215057917
PrefabInstance:
  m_ObjectHideFlags: 0
  serializedVersion: 2
  m_Modification:
    m_TransformParent: {fileID: 0}
    m_Modifications:
    - target: {fileID: 6527379182249332761, guid: 400e4442d89b4f44e80ed19e29d90b07,
        type: 3}
      propertyPath: m_Name
      value: Rock Long
      objectReference: {fileID: 0}
    - target: {fileID: 6527379182249332766, guid: 400e4442d89b4f44e80ed19e29d90b07,
        type: 3}
      propertyPath: m_LocalPosition.x
      value: -2.1564953
      objectReference: {fileID: 0}
    - target: {fileID: 6527379182249332766, guid: 400e4442d89b4f44e80ed19e29d90b07,
        type: 3}
      propertyPath: m_LocalPosition.y
      value: -1.6455904
      objectReference: {fileID: 0}
    - target: {fileID: 6527379182249332766, guid: 400e4442d89b4f44e80ed19e29d90b07,
        type: 3}
      propertyPath: m_LocalPosition.z
      value: 0.2647403
      objectReference: {fileID: 0}
    - target: {fileID: 6527379182249332766, guid: 400e4442d89b4f44e80ed19e29d90b07,
        type: 3}
      propertyPath: m_LocalRotation.x
      value: 0
      objectReference: {fileID: 0}
    - target: {fileID: 6527379182249332766, guid: 400e4442d89b4f44e80ed19e29d90b07,
        type: 3}
      propertyPath: m_LocalRotation.y
      value: 0
      objectReference: {fileID: 0}
    - target: {fileID: 6527379182249332766, guid: 400e4442d89b4f44e80ed19e29d90b07,
        type: 3}
      propertyPath: m_LocalRotation.z
      value: 0
      objectReference: {fileID: 0}
    - target: {fileID: 6527379182249332766, guid: 400e4442d89b4f44e80ed19e29d90b07,
        type: 3}
      propertyPath: m_LocalRotation.w
      value: 1
      objectReference: {fileID: 0}
    - target: {fileID: 6527379182249332766, guid: 400e4442d89b4f44e80ed19e29d90b07,
        type: 3}
      propertyPath: m_RootOrder
      value: 1
      objectReference: {fileID: 0}
    - target: {fileID: 6527379182249332766, guid: 400e4442d89b4f44e80ed19e29d90b07,
        type: 3}
      propertyPath: m_LocalEulerAnglesHint.x
      value: 0
      objectReference: {fileID: 0}
    - target: {fileID: 6527379182249332766, guid: 400e4442d89b4f44e80ed19e29d90b07,
        type: 3}
      propertyPath: m_LocalEulerAnglesHint.y
      value: 0
      objectReference: {fileID: 0}
    - target: {fileID: 6527379182249332766, guid: 400e4442d89b4f44e80ed19e29d90b07,
        type: 3}
      propertyPath: m_LocalEulerAnglesHint.z
      value: 0
      objectReference: {fileID: 0}
    m_RemovedComponents: []
  m_SourcePrefab: {fileID: 100100000, guid: 400e4442d89b4f44e80ed19e29d90b07, type: 3}
--- !u!1001 &1367064228
PrefabInstance:
  m_ObjectHideFlags: 0
  serializedVersion: 2
  m_Modification:
    m_TransformParent: {fileID: 0}
    m_Modifications:
    - target: {fileID: 4256019788347760188, guid: 1a035c63f4df14f4db56821871dd9f6a,
        type: 3}
      propertyPath: m_Name
      value: Input Manager
      objectReference: {fileID: 0}
    - target: {fileID: 4256019788347760190, guid: 1a035c63f4df14f4db56821871dd9f6a,
        type: 3}
      propertyPath: m_LocalPosition.x
      value: 0
      objectReference: {fileID: 0}
    - target: {fileID: 4256019788347760190, guid: 1a035c63f4df14f4db56821871dd9f6a,
        type: 3}
      propertyPath: m_LocalPosition.y
      value: 0
      objectReference: {fileID: 0}
    - target: {fileID: 4256019788347760190, guid: 1a035c63f4df14f4db56821871dd9f6a,
        type: 3}
      propertyPath: m_LocalPosition.z
      value: 0
      objectReference: {fileID: 0}
    - target: {fileID: 4256019788347760190, guid: 1a035c63f4df14f4db56821871dd9f6a,
        type: 3}
      propertyPath: m_LocalRotation.x
      value: 0
      objectReference: {fileID: 0}
    - target: {fileID: 4256019788347760190, guid: 1a035c63f4df14f4db56821871dd9f6a,
        type: 3}
      propertyPath: m_LocalRotation.y
      value: 0
      objectReference: {fileID: 0}
    - target: {fileID: 4256019788347760190, guid: 1a035c63f4df14f4db56821871dd9f6a,
        type: 3}
      propertyPath: m_LocalRotation.z
      value: 0
      objectReference: {fileID: 0}
    - target: {fileID: 4256019788347760190, guid: 1a035c63f4df14f4db56821871dd9f6a,
        type: 3}
      propertyPath: m_LocalRotation.w
      value: 1
      objectReference: {fileID: 0}
    - target: {fileID: 4256019788347760190, guid: 1a035c63f4df14f4db56821871dd9f6a,
        type: 3}
      propertyPath: m_RootOrder
      value: 6
      objectReference: {fileID: 0}
    - target: {fileID: 4256019788347760190, guid: 1a035c63f4df14f4db56821871dd9f6a,
        type: 3}
      propertyPath: m_LocalEulerAnglesHint.x
      value: 0
      objectReference: {fileID: 0}
    - target: {fileID: 4256019788347760190, guid: 1a035c63f4df14f4db56821871dd9f6a,
        type: 3}
      propertyPath: m_LocalEulerAnglesHint.y
      value: 0
      objectReference: {fileID: 0}
    - target: {fileID: 4256019788347760190, guid: 1a035c63f4df14f4db56821871dd9f6a,
        type: 3}
      propertyPath: m_LocalEulerAnglesHint.z
      value: 0
      objectReference: {fileID: 0}
    m_RemovedComponents: []
  m_SourcePrefab: {fileID: 100100000, guid: 1a035c63f4df14f4db56821871dd9f6a, type: 3}
--- !u!1001 &1586223774
PrefabInstance:
  m_ObjectHideFlags: 0
  serializedVersion: 2
  m_Modification:
    m_TransformParent: {fileID: 0}
    m_Modifications:
    - target: {fileID: 1690494897523178979, guid: 3d8997b1effb7cc4a89da3b49b67b17f,
        type: 3}
      propertyPath: m_Name
      value: EventSystem
      objectReference: {fileID: 0}
    - target: {fileID: 1690494897523178976, guid: 3d8997b1effb7cc4a89da3b49b67b17f,
        type: 3}
      propertyPath: m_LocalPosition.x
      value: 0
      objectReference: {fileID: 0}
    - target: {fileID: 1690494897523178976, guid: 3d8997b1effb7cc4a89da3b49b67b17f,
        type: 3}
      propertyPath: m_LocalPosition.y
      value: 0
      objectReference: {fileID: 0}
    - target: {fileID: 1690494897523178976, guid: 3d8997b1effb7cc4a89da3b49b67b17f,
        type: 3}
      propertyPath: m_LocalPosition.z
      value: 0
      objectReference: {fileID: 0}
    - target: {fileID: 1690494897523178976, guid: 3d8997b1effb7cc4a89da3b49b67b17f,
        type: 3}
      propertyPath: m_LocalRotation.x
      value: 0
      objectReference: {fileID: 0}
    - target: {fileID: 1690494897523178976, guid: 3d8997b1effb7cc4a89da3b49b67b17f,
        type: 3}
      propertyPath: m_LocalRotation.y
      value: 0
      objectReference: {fileID: 0}
    - target: {fileID: 1690494897523178976, guid: 3d8997b1effb7cc4a89da3b49b67b17f,
        type: 3}
      propertyPath: m_LocalRotation.z
      value: 0
      objectReference: {fileID: 0}
    - target: {fileID: 1690494897523178976, guid: 3d8997b1effb7cc4a89da3b49b67b17f,
        type: 3}
      propertyPath: m_LocalRotation.w
      value: 1
      objectReference: {fileID: 0}
    - target: {fileID: 1690494897523178976, guid: 3d8997b1effb7cc4a89da3b49b67b17f,
        type: 3}
      propertyPath: m_RootOrder
      value: 5
      objectReference: {fileID: 0}
    - target: {fileID: 1690494897523178976, guid: 3d8997b1effb7cc4a89da3b49b67b17f,
        type: 3}
      propertyPath: m_LocalEulerAnglesHint.x
      value: 0
      objectReference: {fileID: 0}
    - target: {fileID: 1690494897523178976, guid: 3d8997b1effb7cc4a89da3b49b67b17f,
        type: 3}
      propertyPath: m_LocalEulerAnglesHint.y
      value: 0
      objectReference: {fileID: 0}
    - target: {fileID: 1690494897523178976, guid: 3d8997b1effb7cc4a89da3b49b67b17f,
        type: 3}
      propertyPath: m_LocalEulerAnglesHint.z
      value: 0
      objectReference: {fileID: 0}
    m_RemovedComponents: []
  m_SourcePrefab: {fileID: 100100000, guid: 3d8997b1effb7cc4a89da3b49b67b17f, type: 3}
